{
    "AppSyncApiName": "AmplifyAndroid",
    "DynamoDBBillingMode": "PAY_PER_REQUEST",
    "DynamoDBEnableServerSideEncryption": "false",
    "AuthCognitoUserPoolId": {
        "Fn::GetAtt": [
            "authcognito27df27c1",
            "Outputs.UserPoolId"
        ]
    }
}